…
``` r
tick = proc.time()
f = list.files("data_in", full.names = TRUE)

parallel::mclapply(f, mc.cores = 8, function(i){
read_csv(i) %>% 
    group_by(sex) %>% 
    summarise(end_of_this_period = unique(end_of_this_period),
              mean_income = mean(income),
              overdraft_users = sum(cash_min < 0))
}) %>% 
  bind_rows()
```

    # A tibble: 456 × 4
       sex   end_of_this_period mean_income overdraft_users
       <chr> <date>                   <dbl>           <int>
     1 F     2019-01-06              41201.            5622
     2 M     2019-01-06              41479.            5727
     3 F     2019-01-13              41288.            5592
     4 M     2019-01-13              41304.            5632
     5 F     2019-01-20              41144.            5658
     6 M     2019-01-20              41298.            5692
     7 F     2019-01-27              41172.            5579
     8 M     2019-01-27              41295.            5684
     9 F     2019-02-03              41270.            5658
    10 M     2019-02-03              41183.            5612
    # ℹ 446 more rows
…
``` r
tick = proc.time()
f = list.files("data_in", full.names = TRUE)

parallel::mclapply(f, mc.cores = 8, function(i){
read_csv_arrow(i) %>% 
    group_by(sex) %>% 
    summarise(end_of_this_period = unique(end_of_this_period),
              mean_income = mean(income),
              overdraft_users = sum(cash_min < 0))
}) %>% 
  bind_rows()
```

    # A tibble: 456 × 4
       sex   end_of_this_period mean_income overdraft_users
       <chr> <date>                   <dbl>           <int>
     1 F     2019-01-06              41201.            5622
     2 M     2019-01-06              41479.            5727
     3 F     2019-01-13              41288.            5592
     4 M     2019-01-13              41304.            5632
     5 F     2019-01-20              41144.            5658
     6 M     2019-01-20              41298.            5692
     7 F     2019-01-27              41172.            5579
     8 M     2019-01-27              41295.            5684
     9 F     2019-02-03              41270.            5658
    10 M     2019-02-03              41183.            5612
    # ℹ 446 more rows
…
### Dataset, arrow

``` r
tick = proc.time()
f = list.files("data_in", full.names = TRUE)

open_csv_dataset(f) %>% 
    group_by(end_of_this_period, sex) %>% 
    summarise(mean_income = mean(income),
              overdraft_users = sum(cash_min < 0)) %>% 
  collect()
```

    # A tibble: 456 × 4
    # Groups:   end_of_this_period [228]
       end_of_this_period sex   mean_income overdraft_users
       <date>             <chr>       <dbl>           <int>
     1 2019-01-06         M          41479.            5727
     2 2019-01-06         F          41201.            5622
     3 2019-01-13         M          41304.            5632
     4 2019-01-13         F          41288.            5592
     5 2019-01-20         F          41144.            5658
     6 2019-01-20         M          41298.            5692
     7 2019-01-27         M          41295.            5684
     8 2019-01-27         F          41172.            5579
     9 2019-02-24         M          41584.            5635
    10 2019-02-24         F          41210.            5753
    # ℹ 446 more rows
…
``` r
tick = proc.time()
f = list.files("data_part_date", recursive = T, full.names = TRUE)

parallel::mclapply(f, mc.cores = 8, function(i){
read_parquet(i) %>% 
    group_by(sex) %>% 
    summarise(end_of_this_period = as.Date(str_sub(i, 35, 44)),
              mean_income = mean(income),
              overdraft_users = sum(cash_min < 0))
}) %>% 
  bind_rows()
```

    # A tibble: 456 × 4
       sex   end_of_this_period mean_income overdraft_users
       <chr> <date>                   <dbl>           <int>
     1 F     2019-01-06              41201.            5622
     2 M     2019-01-06              41479.            5727
     3 F     2019-01-13              41288.            5592
     4 M     2019-01-13              41304.            5632
     5 F     2019-01-20              41144.            5658
     6 M     2019-01-20              41298.            5692
     7 F     2019-01-27              41172.            5579
     8 M     2019-01-27              41295.            5684
     9 F     2019-02-03              41270.            5658
    10 M     2019-02-03              41183.            5612
    # ℹ 446 more rows
…
### Dataset

``` r
tick = proc.time()

open_dataset("data_part_date") %>% 
    group_by(end_of_this_period, sex) %>% 
    summarise(mean_income = mean(income),
              overdraft_users = sum(cash_min < 0)) %>% 
  collect()
```

    # A tibble: 456 × 4
    # Groups:   end_of_this_period [228]
       end_of_this_period sex   mean_income overdraft_users
       <chr>              <chr>       <dbl>           <int>
     1 2019-01-27         M          41295.            5684
     2 2019-01-27         F          41172.            5579
     3 2019-01-13         M          41304.            5632
     4 2019-01-13         F          41288.            5592
     5 2019-01-06         M          41479.            5727
     6 2019-01-06         F          41201.            5622
     7 2019-01-20         M          41298.            5692
     8 2019-01-20         F          41144.            5658
     9 2019-02-03         F          41270.            5658
    10 2019-02-03         M          41183.            5612
    # ℹ 446 more rows
…
